{
  "kind": "collectionType",
  "collectionName": "clients",
  "info": {
    "singularName": "client",
    "pluralName": "clients",
    "displayName": "Client",
    "description": ""
  },
  "options": {
    "draftAndPublish": true
  },
  "pluginOptions": {},
  "attributes": {
    "adresse": {
      "type": "text"
    },
    "email": {
      "type": "email",
      "unique": true,
      "required": true
    },
    "numero": {
      "type": "biginteger"
    },
    "nom": {
      "type": "string"
    },
    "commandes": {
      "type": "relation",
      "relation": "oneToMany",
      "target": "api::commande.commande",
      "mappedBy": "client"
    }
  }
}
