{
  "kind": "collectionType",
  "collectionName": "produits",
  "info": {
    "singularName": "produit",
    "pluralName": "produits",
    "displayName": "Produit",
    "description": ""
  },
  "options": {
    "draftAndPublish": true
  },
  "pluginOptions": {},
  "attributes": {
    "Nom": {
      "type": "string",
      "required": true,
      "unique": true
    },
    "Prix": {
      "min": 0,
      "type": "decimal"
    }
  }
}
